1. DOROTHY DESTACHE                                                     00020001
   RESOURCE MANAGEMENT                                                  00020101
   NORTH TORREY PINES CENTER                                            00020202
                                                                        00021001
2. BILL CHERON                                                          00030001
   ACADEMIC AFFAIRS                                                     00040000
   Q-001                                                                00050000
