1. BEVERLY - PRDCTL                                                     00010001
2. TOM BARTOLOTTA                                                       00020000
   BOTTOMLINE TECHNOLOGY                                                00030000
   1 COURT STREET                                                       00031000
   EXETER, NEW HAMPSHIRE 03833-2742                                     00033000
