1. PRODUCTION CONTROL                                                   00010000
2. MICROFICHE VENDOR                                                    00020000
3. ACCTG-DISBURSEMENTS                                                  00030001
  ATTN: FAYE MCCULLOUGH                                                 00040002
