 INCLUDE COND=(89,1,EQ,5,OR,89,1,EQ,6,OR,89,1,EQ,7,OR,89,1,EQ,8,OR,19,
               1,EQ,1),FORMAT=ZD
 SORT  FIELDS=(11,8,A,19,1,D,89,6,A,77,6,A,69,6,A,40,9,A,
               50,2,A,53,2,A,20,4,A),FORMAT=CH
