PRODUCTION CONTROL:                                                     00010000
INPUT THIS TAPE TO THE B7800..                                          00020000
(AC14)BUDGET/GLEXTRACT/TAPETODISK                                       00030000
