     DUMP -                                                             00010000
       OUTDDNAME (DD2) -                                                00030000
       TOL(ENQF) -                                                      00031000
       DATASET (INCLUDE(FISP.FIS.CASHIER.IDMSCOPY.* -                   00040001
                        FISP.FIS.CASHIER.IDMSCOPY.*.*))                 00050001
