     DUMP -                                                             00010000
       OUTDDNAME (DD2) -                                                00030000
       TOL(ENQF) -                                                      00031000
       DATASET (INCLUDE(FISP.FCC010D2.TAPEINP.*))                       00041001
