1) PRODUCTION CONTROL                                                   00010000
2) PETER DELMONTE                                                       00011000
  PARKING OFFICE                                                        00012000
  MAIL CODE Q-040                                                       00013000
