1) PRODUCTION CONTROL                                                   00010000
2) MEDIA CENTER                                                         00011000
  MAIL CODE D007                                                        00013000
