1) PRODUCTION CONTROL                                                   00010000
2) COMPUTER OPERATIONS                                                  00011002
  HOSPITAL DP                                                           00012000
  MAIL CODE H-914                                                       00013000
