1.) PRODUCTION CONTROL                                                  00010004
2.) STEVE HIGGINS                                                       00020003
    204 W.C.                                                            00030002
    - FOR UCSD                                                          00050000
      MEDICAL CENTER -                                                  00060000
