1.) PRODUCTION CONTROL                                                  00010003
2.) STEVE HIGGINS                                                       00020002
    EQUIPMENT INVENTORY                                                 00030002
    204 W.C.                                                            00040002
