transmit +                                                              00010000
 UCSDMVSA.SMTP DATASET('FISP.FTAX210F.EMAILFL.SMTP') +                  00020000
      noepilog nolog noprolog                                           00030000
/*                                                                      00040000
