*UNIVERSITY CODE $FISUNVRSCODE                                          00000100
*COA CODE $FISCOACODE                                                   00000200
*FISCAL YEAR $FISFSCLYR                                                 00000300
*ACCOUNTING PERIOD $FISACTGPRD                                          00000400
*DESCRIPTION $FISDESC                                                   00001000
