GENERAL LEDGER FICHE (GAM060)                                           00010000
COPIES = 4                                                              00020018
FORMAT = UCS009                                                         00021014
                                                                        00030000
RETURN FICHE AND TAPE TO:                                               00040000
PRODUCTION CONTROL - UCSD                                               00050000
