OPERATING LEDGER FICHE                                                  00010000
COPIES = 4                                                              00020015
FORMAT = UCS011                                                         00021010
                                                                        00030000
                                                                        00032000
RETURN FICHE AND TAPE TO:                                               00040000
PRODUCTION CONTROL - UCSD                                               00050000
