1) PRDCTL                                                               00010000
   HOLD FOR SUPERVISOR APPROVAL                                         00020000
2) MICROFICHE VENDOR                                                    00030000
