GL090 LOCAL LEDGER REPORT FICHE                                         00010000
(PROGRAM SUMMARY REPORT)                                                00011000
COPIES = 2                                                              00012014
FORMAT = UCS014                                                         00013011
                                                                        00014000
RETURN FICHE AND TAPE TO:                                               00015000
PRODUCTION CONTROL - UCSD                                               00016000
