receive
     account(IBMMAIL) userid(USPWRBDR)  #sender was MANPOWER
     fileid(DD:WFBDOUT)               #recv the file to DD WFBDOUT
     allfiles(n)                    #only rcv 1st file meeting criter.
     class(MANPWR);                 #class to identify file content
